{
  "project_info": {
    "project_number": "1069869749907",
    "firebase_url": "https://app-cancao-nova.firebaseio.com",
    "project_id": "app-cancao-nova",
    "storage_bucket": "app-cancao-nova.appspot.com"
  },
  "client": [
    {
      "client_info": {
        "mobilesdk_app_id": "1:1069869749907:android:8567dd45829431c7",
        "android_client_info": {
          "package_name": "com.cancaonova"
        }
      },
      "oauth_client": [
        {
          "client_id": "1069869749907-0f0i3a7e4775moih2jv19sknsnakgs12.apps.googleusercontent.com",
          "client_type": 1,
          "android_info": {
            "package_name": "com.cancaonova",
            "certificate_hash": "2bb0df7c88e5294311a2884faaf7a99877db5078"
          }
        },
        {
          "client_id": "1069869749907-ve3i903ffhvfnoqh29ri47b0fqgb5rto.apps.googleusercontent.com",
          "client_type": 1,
          "android_info": {
            "package_name": "com.cancaonova",
            "certificate_hash": "39af17f5faee2c3397df2562266f966949ccb6a3"
          }
        },
        {
          "client_id": "1069869749907-b3684n79f55485e83bl7u1bf0p040ldd.apps.googleusercontent.com",
          "client_type": 3
        }
      ],
      "api_key": [
        {
          "current_key": "AIzaSyAA1O5lMQsfzxl-Sb7NEgb0uzF7I4BTONQ"
        }
      ],
      "services": {
        "analytics_service": {
          "status": 1
        },
        "appinvite_service": {
          "status": 2,
          "other_platform_oauth_client": [
            {
              "client_id": "1069869749907-3ghalhe5h5ijag7c2cu7qv7jm8eni37e.apps.googleusercontent.com",
              "client_type": 2,
              "ios_info": {
                "bundle_id": "com.cancaonova"
              }
            },
            {
              "client_id": "1069869749907-b3684n79f55485e83bl7u1bf0p040ldd.apps.googleusercontent.com",
              "client_type": 3
            }
          ]
        },
        "ads_service": {
          "status": 2
        }
      }
    }
  ],
  "configuration_version": "1"
}